Examples · GLM
…
Y ~ 1 + X

Coefficients:
────────────────────────────────────────────────────────────────────────
                Coef.  Std. Error      z  Pr(>|z|)  Lower 95%  Upper 95%
────────────────────────────────────────────────────────────────────────
(Intercept)   9.63839     293.909   0.03    0.9738   -566.414    585.69
X            -4.81919     146.957  -0.03    0.9738   -292.849    283.211
────────────────────────────────────────────────────────────────────────
Negative binomial regression

julia> using GLM, RDatasets

julia> quine = dataset("MASS", "quine")
146×5 DataFrame
 Row │ Eth   Sex   Age   Lrn   Days
     │ Cat…  Cat…  Cat…  Cat…  Int32
─────┼───────────────────────────────
   1 │ A     M     F0    SL        2
   2 │ A     M     F0    SL       11
   3 │ A     M     F0    SL       14
   4 │ A     M     F0    AL        5
   5 │ A     M     F0    AL        5
   6 │ A     M     F0    AL       13
   7 │ A     M     F0    AL       20
   8 │ A     M     F0    AL       22
  ⋮  │  ⋮     ⋮     ⋮     ⋮      ⋮
 140 │ N     F     F3    AL        3
 141 │ N     F     F3    AL        3
 142 │ N     F     F3    AL        5
 143 │ N     F     F3    AL       15
 144 │ N     F     F3    AL       18
 145 │ N     F     F3    AL       22
 146 │ N     F     F3    AL       37
                     131 rows omitted
…
> coef(summary(lm(sr ~ pop15 + pop75 + dpi + ddpi, LifeCycleSavings)))
                 Estimate   Std. Error    t value     Pr(>|t|)
(Intercept) 28.5660865407 7.3545161062  3.8841558 0.0003338249
pop15       -0.4611931471 0.1446422248 -3.1885098 0.0026030189
pop75       -1.6914976767 1.0835989307 -1.5609998 0.1255297940
dpi         -0.0003369019 0.0009311072 -0.3618293 0.7191731554
ddpi         0.4096949279 0.1961971276  2.0881801 0.0424711387
with the corresponding Julia code

julia> LifeCycleSavings = dataset("datasets", "LifeCycleSavings")
50×6 DataFrame
 Row │ Country         SR       Pop15    Pop75    DPI      DDPI
     │ String15        Float64  Float64  Float64  Float64  Float64
─────┼─────────────────────────────────────────────────────────────
   1 │ Australia         11.43    29.35     2.87  2329.68     2.87
   2 │ Austria           12.07    23.32     4.41  1507.99     3.93
   3 │ Belgium           13.17    23.8      4.43  2108.47     3.82
   4 │ Bolivia            5.75    41.89     1.67   189.13     0.22
   5 │ Brazil            12.88    42.19     0.83   728.47     4.56
   6 │ Canada             8.79    31.72     2.85  2982.88     2.43
   7 │ Chile              0.6     39.74     1.34   662.86     2.67
   8 │ China             11.9     44.75     0.67   289.52     6.51
  ⋮  │       ⋮            ⋮        ⋮        ⋮        ⋮        ⋮
  44 │ United States      7.56    29.81     3.43  4001.89     2.45
  45 │ Venezuela          9.22    46.4      0.9    813.39     0.53
  46 │ Zambia            18.56    45.25     0.56   138.33     5.14
  47 │ Jamaica            7.72    41.12     1.73   380.47    10.23
  48 │ Uruguay            9.24    28.13     2.72   766.54     1.88
  49 │ Libya              8.89    43.69     2.07   123.58    16.71
  50 │ Malaysia           4.71    47.2      0.66   242.69     5.08
                                                    35 rows omitted
…
julia> round(deviance(gm1), digits=5)
5.11746
Linear regression with PowerLink
In this example, we choose the best model from a set of λs, based on minimum BIC.

julia> using GLM, RDatasets, StatsBase, DataFrames, Optim

julia> trees = DataFrame(dataset("datasets", "trees"))
31×3 DataFrame
 Row │ Girth    Height  Volume  
     │ Float64  Int64   Float64 
─────┼──────────────────────────
   1 │     8.3      70     10.3
   2 │     8.6      65     10.3
   3 │     8.8      63     10.2
   4 │    10.5      72     16.4
   5 │    10.7      81     18.8
   6 │    10.8      83     19.7
   7 │    11.0      66     15.6
   8 │    11.0      75     18.2
  ⋮  │    ⋮       ⋮        ⋮
  25 │    16.3      77     42.6
  26 │    17.3      81     55.4
  27 │    17.5      82     55.7
  28 │    17.9      80     58.3
  29 │    18.0      80     51.5
  30 │    18.0      80     51.0
  31 │    20.6      87     77.0
                 16 rows omitted
…
