Examples · GLM
…
Y ~ 1 + X

Coefficients:
────────────────────────────────────────────────────────────────────────
                Coef.  Std. Error      z  Pr(>|z|)  Lower 95%  Upper 95%
────────────────────────────────────────────────────────────────────────
(Intercept)   9.63839     293.909   0.03    0.9738   -566.414    585.69
X            -4.81919     146.957  -0.03    0.9738   -292.849    283.211
────────────────────────────────────────────────────────────────────────
Negative binomial regression

julia> using GLM, RDatasets

julia> quine = dataset("MASS", "quine")
146×5 DataFrame
 Row │ Eth   Sex   Age   Lrn   Days
     │ Cat…  Cat…  Cat…  Cat…  Int32
─────┼───────────────────────────────
   1 │ A     M     F0    SL        2
   2 │ A     M     F0    SL       11
   3 │ A     M     F0    SL       14
   4 │ A     M     F0    AL        5
   5 │ A     M     F0    AL        5
   6 │ A     M     F0    AL       13
   7 │ A     M     F0    AL       20
   8 │ A     M     F0    AL       22
  ⋮  │  ⋮     ⋮     ⋮     ⋮      ⋮
 140 │ N     F     F3    AL        3
 141 │ N     F     F3    AL        3
 142 │ N     F     F3    AL        5
 143 │ N     F     F3    AL       15
 144 │ N     F     F3    AL       18
 145 │ N     F     F3    AL       22
 146 │ N     F     F3    AL       37
                     131 rows omitted
…
